[
  {
    "id": "1",
    "firstName": "John",
    "lastName": "Doe",
    "sex": "male",
	"birthData":"21.12.1968",
	"deathData":"",
	"phone":"+38(099)-509-88-99",
	"workPhone":"+38(099)-509-88-99",
	"email":"john.smith@gmail.com",
	"house":"12",
	"street":"Svobody",
	"city":"Lviv",
	"zip":"099678",
	"business":"architector"
  },
  {
    "id": "2",
    "firstName": "Ann",
    "lastName": "Bureau",
    "sex": "female"
  },
  {
    "id": "3",
    "firstName": "Linda",
    "lastName": "Kaufman",
    "sex": "female"
  },
  {
    "id": "4",
    "firstName": "Peter",
    "lastName": "Parker",
    "sex": "male"
  },
  {
    "id": "5",
    "firstName": "Jeniffer",
    "lastName": "Lourens",
    "sex": "female"
  }
]
